…
### `select()`：参数和基本用法

数据框本身和向量和矩阵类似，可以使用`[]`来选取数据框内的数据，`select()`的基本功能和这种方法类似，但是存在一定区别

```R
#通过数据框本身筛选出年和月的数据
> flights[c("year","month")]
# A tibble: 336,776 × 2
   month  year
   <int> <int>
 1     1  2013
 2     1  2013
 3     1  2013
 4     1  2013
 5     1  2013
 6     1  2013
 7     1  2013
 8     1  2013
 9     1  2013
10     1  2013
# … with 336,766 more rows
```
…
